module gitlab.com/fteweb/smugmug

go 1.18

require (
	github.com/dghubble/oauth1 v0.7.1
	github.com/gabriel-vasile/mimetype v1.4.1
	github.com/spf13/cobra v1.5.0
	github.com/spf13/viper v1.12.0
	golang.org/x/text v0.3.7
)

require (
	github.com/fsnotify/fsnotify v1.5.4 // indirect
	github.com/hashicorp/hcl v1.0.0 // indirect
	github.com/inconshreveable/mousetrap v1.0.0 // indirect
	github.com/magiconair/properties v1.8.6 // indirect
	github.com/mitchellh/mapstructure v1.5.0 // indirect
	github.com/pelletier/go-toml v1.9.5 // indirect
	github.com/pelletier/go-toml/v2 v2.0.2 // indirect
	github.com/spf13/afero v1.8.2 // indirect
	github.com/spf13/cast v1.5.0 // indirect
	github.com/spf13/jwalterweatherman v1.1.0 // indirect
	github.com/spf13/pflag v1.0.5 // indirect
	github.com/stretchr/testify v1.7.2 // indirect
	github.com/subosito/gotenv v1.4.0 // indirect
	golang.org/x/net v0.0.0-20220708220712-1185a9018129 // indirect
	golang.org/x/sys v0.0.0-20220712014510-0a85c31ab51e // indirect
	gopkg.in/ini.v1 v1.66.6 // indirect
	gopkg.in/yaml.v2 v2.4.0 // indirect
	gopkg.in/yaml.v3 v3.0.1 // indirect
)
